<?xml version="1.0" encoding="UTF-8" standalone="no"?>
<!-- Created with Inkscape (http://www.inkscape.org/) -->

<svg
   xmlns:dc="http://purl.org/dc/elements/1.1/"
   xmlns:cc="http://creativecommons.org/ns#"
   xmlns:rdf="http://www.w3.org/1999/02/22-rdf-syntax-ns#"
   xmlns:svg="http://www.w3.org/2000/svg"
   xmlns="http://www.w3.org/2000/svg"
   xmlns:sodipodi="http://sodipodi.sourceforge.net/DTD/sodipodi-0.dtd"
   xmlns:inkscape="http://www.inkscape.org/namespaces/inkscape"
   width="12"
   height="12"
   viewBox="0 0 3.1749999 3.1750001"
   version="1.1"
   id="svg8"
   inkscape:version="0.92.3 (2405546, 2018-03-11)"
   sodipodi:docname="scrollbar-down-p.svg">
  <defs
     id="defs2" />
  <g
     inkscape:label="Layer 1"
     inkscape:groupmode="layer"
     id="layer1"
     transform="translate(0,-293.82498)">
    <path
       style="color:#000000;font-style:normal;font-variant:normal;font-weight:normal;font-stretch:normal;font-size:medium;line-height:normal;font-family:sans-serif;font-variant-ligatures:normal;font-variant-position:normal;font-variant-caps:normal;font-variant-numeric:normal;font-variant-alternates:normal;font-feature-settings:normal;text-indent:0;text-align:start;text-decoration:none;text-decoration-line:none;text-decoration-style:solid;text-decoration-color:#000000;letter-spacing:normal;word-spacing:normal;text-transform:none;writing-mode:lr-tb;direction:ltr;text-orientation:mixed;dominant-baseline:auto;baseline-shift:baseline;text-anchor:start;white-space:normal;shape-padding:0;clip-rule:nonzero;display:inline;overflow:visible;visibility:visible;opacity:1;isolation:auto;mix-blend-mode:normal;color-interpolation:sRGB;color-interpolation-filters:linearRGB;solid-color:#000000;solid-opacity:1;vector-effect:none;fill:none;fill-opacity:1;fill-rule:nonzero;stroke:#ff931f;stroke-width:0.05291667;stroke-linecap:butt;stroke-linejoin:round;stroke-miterlimit:4;stroke-dasharray:none;stroke-dashoffset:0;stroke-opacity:1;color-rendering:auto;image-rendering:auto;shape-rendering:auto;text-rendering:auto;enable-background:accumulate"
       d="m 1.5859375,296.2213 c -0.010625,-2e-4 -0.021161,-0.003 -0.03125,-0.006 -0.016011,-0.005 -0.03096,-0.0136 -0.042969,-0.0254 l -1.4960938,-1.49805 c -0.0011713,-10e-4 -0.002791,-0.003 -0.0039063,-0.004 a 0.06615245,0.06615245 0 0 1 -0.00195312,-0.004 c -0.00648458,-0.008 -0.01174982,-0.0158 -0.01562501,-0.0254 -0.0156719,-0.0364 -0.00960498,-0.0789 0.01562501,-0.10937 0.00418185,-0.005 0.00863329,-0.01 0.01367187,-0.0137 0.0078601,-0.007 0.01793558,-0.0116 0.02734375,-0.0156 a 0.06615245,0.06615245 0 0 1 0.0039063,-0.002 c 0.01214155,-0.004 0.02431748,-0.006 0.03710937,-0.006 h 0.65234375 c 0.0162335,-9e-5 0.0322775,0.003 0.046875,0.01 a 0.06615245,0.06615245 0 0 1 0.003906,0.002 c 0.008955,0.005 0.0163745,0.012 0.0234375,0.0195 l 0.001953,0.002 0.76562498,0.76562 0.7695313,-0.76757 c 0.00707,-0.008 0.014479,-0.0143 0.023437,-0.0195 a 0.06615245,0.06615245 0 0 1 0.00391,-0.002 c 0.016167,-0.008 0.034753,-0.0107 0.052734,-0.01 h 0.6484375 c 0.023667,-4.4e-4 0.045541,0.007 0.064453,0.0215 a 0.06615245,0.06615245 0 0 1 0.00391,0.002 c 0.00504,0.004 0.00949,0.009 0.013672,0.0137 0.02523,0.0305 0.031296,0.073 0.015625,0.10937 a 0.06615245,0.06615245 0 0 1 -0.00195,0.006 c -0.00659,0.012 -0.016726,0.0226 -0.027344,0.0312 l 0.00586,-0.004 -1.4941406,1.4961 c -0.00167,0.002 -0.00406,0.002 -0.00586,0.004 a 0.06615245,0.06615245 0 0 1 0,0.002 c -0.010595,0.009 -0.023648,0.0169 -0.037109,0.0215 -0.00183,6.1e-4 -0.004,-5e-4 -0.00586,0 a 0.06615245,0.06615245 0 0 1 -0.00586,0.002 c -0.002,4.1e-4 -0.00384,0.002 -0.00586,0.002 a 0.06615245,0.06615245 0 0 1 -0.013672,0.002 0.06615245,0.06615245 0 0 1 -0.00391,0 z m 0.00195,-0.25586 1.2421875,-1.24219 H 2.4746094 l -0.8085938,0.80665 c -0.011073,0.0137 -0.024749,0.0245 -0.041016,0.0312 a 0.06615245,0.06615245 0 0 1 -0.011719,0.004 c -0.020238,0.004 -0.041235,0.002 -0.060547,-0.006 -0.01501,-0.005 -0.02965,-0.0123 -0.041016,-0.0234 L 0.69921755,294.7232 H 0.34570312 Z"
       id="path1036"
       inkscape:connector-curvature="0" />
    <path
       style="fill:#804000;fill-opacity:1;stroke:none;stroke-width:0.26458332px;stroke-linecap:butt;stroke-linejoin:miter;stroke-opacity:1"
       d="M 1.5875,296.11429 0.09095052,294.61774 H 0.74362386 L 1.5875,295.46162 2.4313761,294.61774 h 0.6526733 z"
       id="path817"
       inkscape:connector-curvature="0" />
  </g>
</svg>
